digraph "Graphical Class Hierarchy"
{
  edge [fontname="Helvetica",fontsize="10",labelfontname="Helvetica",labelfontsize="10"];
  node [fontname="Helvetica",fontsize="10",shape=record];
  rankdir="LR";
  Node1 [label="Image2DReader\< Color \>",height=0.2,width=0.4,color="black", fillcolor="white", style="filled",URL="$classImage2DReader_3_01Color_01_4.html",tooltip="Specialization for color images. "];
}
